module linebot

go 1.14

require (
	github.com/davecgh/go-spew v1.1.1 // indirect
	github.com/globalsign/mgo v0.0.0-20181015135952-eeefdecb41b8
	github.com/kr/pretty v0.1.0 // indirect
	github.com/labstack/echo/v4 v4.1.16
	github.com/line/line-bot-sdk-go v7.3.0+incompatible
	gopkg.in/check.v1 v1.0.0-20180628173108-788fd7840127 // indirect
)
